490757 56451 449
326920 529593 470
951452 237338 525
693929 476482 509
142041 492378 449
971791 727969 525
73862 48402 340
722017 72523 509
132725 393878 443
445797 144252 449
452049 70119 449
408458 91022 443
493208 642358 509
457476 969985 525
429785 886572 525
938315 762492 525
891553 974791 507
789204 441543 509
122445 435791 449
773164 990616 525
163097 582448 470
737408 870282 525
516917 388123 470
364919 912783 525
153955 504381 449
926571 760849 525
607346 942515 525
717248 287084 509
581058 582483 328
561478 778118 509
887389 725970 525
576458 98875 470
564755 875618 525
443424 165870 449
62187 784811 509
975161 407969 525
14487 997484 525
602569 897654 525
463430 579569 470
401617 206630 443
733536 779861 468
737587 578948 509
183740 40425 383
3653 419490 449
341820 471076 449
683550 214164 509
281637 326100 389
813804 131301 509
915595 717659 525
551854 954329 525
346929 857290 525
156498 648156 509
880837 836726 525
266870 604398 470
123468 843055 525
366337 208781 443
633042 327937 509
548262 70911 470
192316 433000 449
617139 457233 470
274393 600544 470
159674 333158 443
128428 614053 470
138351 623300 470
791101 19948 509
832071 821161 419
987602 763530 525
689369 635934 442
700049 104886 509
259248 20421 443
885137 701472 525
313050 757968 509
839068 372214 525
381125 773001 509
500353 11865 449
921971 881083 476
13404 109703 354
286389 9088 443
131957 957258 525
265617 231281 407
355717 943059 525
325978 330037 353
772450 355188 509
332924 631102 509
338625 690558 509
909877 309314 525
953705 683855 525
347258 955222 525
291728 203051 443
470250 103552 449
590613 902379 525
804506 369278 509
449434 924073 525
558290 733722 509
246117 674701 509
37757 220312 386
52226 438576 449
845830 60358 525
24327 130707 354
592465 974357 525
562758 427183 470
447256 660729 509
962492 384849 525
372331 791730 509
59829 799760 509
814626 608031 509
99365 782034 509
825451 737478 468
829 121462 354
767553 722235 424
927503 425654 525
32420 809069 509
548448 586579 434
556723 699008 509
961550 45972 525
557440 401910 470
13779 399314 443
470830 259645 449
614470 283995 470
94203 681051 509
985340 310740 525
370337 828249 509
714205 911398 525
489594 794450 509
371218 856091 525
192878 287091 443
45901 184637 383
397353 932688 525
454492 664380 509
739512 782741 468
578178 967856 525
24574 985575 525
138803 945857 525
254678 490829 449
667305 955427 525
185548 844738 525
839114 753379 525
572415 990573 525
547829 14839 470
161905 554139 470
854391 358074 525
200140 468487 449
115738 829345 509
235831 868751 525
456336 382734 449
899805 595912 525
203895 275844 443
132246 511376 449
461554 25074 449
118463 921668 525
922947 796400 525
787200 669747 504
879559 420444 525
874498 275957 525
1386 648662 509
169068 265808 443
25098 818022 509
26563 127207 354
443253 698880 509
913745 916547 370
778898 647047 504
141834 421853 449
860667 749559 525
367491 9348 443
280266 974538 525
4559 726932 509
530774 971663 525
65052 477454 449
291951 585998 470
403739 822346 509
342866 788192 509
140908 784423 509
527910 904832 525
754189 492435 509
212670 205763 373
339713 557677 470
404297 876967 525
871517 952195 507
892997 458647 525
494384 615286 470
120112 529260 470
957467 511528 525
492919 976557 525
878444 48821 525
878480 520622 525
364322 530029 470
577005 355216 470
797914 318624 509
477632 125991 449
743592 282356 509
80351 409802 443
804986 964480 525
60192 754469 509
765816 13127 509
965773 229497 525
961294 478450 525
435475 520165 470
766991 351419 509
54737 946880 525
655238 895663 525
440776 235656 449
61174 331373 443
69468 330671 443
857549 95818 525
398771 479600 449
819994 634191 504
533668 129285 470
986573 817155 525
535085 181058 470
921826 216665 525
356797 897106 525
976631 560930 525
550508 728497 509
415667 201169 449
602144 355558 470
473602 344154 449
969011 828163 525
868137 636010 525
39648 60698 340
918095 985418 507
53204 189912 383
897449 507900 525
668941 711648 504
743204 205996 509
414701 693273 509
381323 59428 443
19395 245732 443
58108 108126 354
698547 758116 504
792403 636425 504
826885 99523 509
416834 232211 449
177206 134526 383
95064 907507 525
921866 522246 525
437686 896390 525
470744 43487 449
536182 715297 509
43121 294067 443
761118 846355 525
431302 239337 449
922403 186468 525
853416 895089 445
643757 375763 509
963276 436205 525
169048 707046 509
348179 853067 525
864504 998701 507
830501 637497 504
690394 985968 525
