946254 221925
668555 100451
964147 414708
730184 624161
731033 432966
211511 655905
734677 583436
313391 312727
411636 818917
334819 356391
601554 130371
788221 796027
632972 412316
165051 554053
480615 546257
815977 418978
903464 499889
141931 967495
654668 754512
386337 180298
456401 378127
640782 916005
416254 225426
365169 127519
534040 769880
924494 365492
230346 529580
631009 343203
967686 227161
525114 351232
665347 506096
819975 828225
706265 235900
164731 618065
322286 47576
773739 178963
909346 897985
458032 3211
218665 907285
918991 349581
631294 969744
460868 593788
207479 788463
712199 555046
122466 767697
80519 853426
458945 412443
710537 603923
275281 504733
972334 128194
899053 918382
595634 971957
338774 962225
993062 884075
25461 706081
273943 189357
722383 817667
83518 482097
151041 124
605433 419759
273128 276062
557886 889345
82835 152867
561913 147656
17764 829550
351250 633104
69117 853665
120028 138633
64924 64545
372788 65314
408067 297206
627622 862084
483266 199093
989910 35789
87135 52342
702068 565375
72049 185045
61673 737539
989916 683169
641577 577126
937349 154151
488077 215434
248327 353594
552160 945418
710939 472863
444408 132548
726091 355417
374577 91526
698391 537810
396442 540177
198448 474741
459520 924863
372269 375473
154482 35593
762117 852483
414016 659672
932187 896219
936670 396128
738812 476820
102895 483438
981347 677095
654382 171641
104890 1986
988774 396123
270247 546622
827788 466474
139490 507323
751944 480679
936053 222551
139627 807520
151553 772322
726392 870723
341633 439950
390221 668993
517119 766662
52336 876100
778977 465457
690438 681347
443016 426910
859095 566697
666546 986704
89180 40610
961370 607385
437262 636501
838272 706441
863193 174723
354859 185279
837726 946359
777143 577988
713609 205972
65871 568947
20488 901295
75145 77244
160811 620827
36875 672904
343932 693162
626891 704797
771687 758653
52610 664185
930769 934190
83785 549507
482709 503368
628214 1625
2399 582831
454461 616921
724256 531243
783406 17680
850093 866763
930971 107598
895480 307331
288578 578248
367629 315848
838814 502967
574720 766638
59489 376472
967878 411440
287672 56627
91192 147933
400075 207578
357060 838836
445596 220776
867174 244465
916516 766760
380600 40796
133223 452524
598098 402182
28822 797428
30742 75883
771181 213823
583929 685538
572146 947980
641074 694402
41003 337555
299233 725513
836525 853437
8694 307542
927234 16388
928133 374300
300207 21756
998236 739058
855827 323122
354022 649291
134080 290303
102065 229344
339662 89463
137877 259505
733981 261588
83032 273958
357675 871850
990244 225206
101267 174395
376787 719377
541237 157640
428847 2279
444904 437468
843371 408317
345286 194588
392002 33268
116525 195542
726452 88569
95021 473122
401785 51654
337238 237916
755441 48704
462967 618827
780146 558463
445688 369719
680209 843827
171232 370610
117159 94280
233506 667544
56265 3654
78800 372888
172158 630416
956065 802954
463026 900678
281476 113840
979725 666916
387258 840669
455848 239498
276951 951099
190539 245521
289446 954392
897276 804611
543486 836805
368745 249279
386573 640112
450111 512663
412336 185759
924505 564508
649590 620362
633872 996960
328094 571147
82536 289753
639137 620655
766093 632845
189894 956086
639031 913216
681571 963710
931206 643528
577966 686545
752284 254447
283720 492030
635170 573697
547227 193536
831128 528999
55958 686830
683815 547401
82497 602139
870783 134120
686704 101859
770834 615880
734509 105342
630137 41040
812160 94922
700983 212322
802693 265350
