535541 491865 470
836084 320350 509
982817 737458 525
627652 908757 525
166298 856449 525
142633 433449 449
257960 188339 443
114274 680514 509
857404 816931 525
939837 500925 525
677920 107682 509
408311 343389 441
269223 985134 525
748625 930850 525
600622 273462 470
869489 626840 525
55930 314756 443
780157 945054 525
150199 252537 443
830798 344043 509
68405 822066 509
591864 918617 525
947509 224406 525
903722 850546 445
675842 677754 385
870988 513357 525
867565 537444 525
350442 939512 525
584982 455098 470
787026 952985 525
327789 907781 525
89381 646201 509
785865 569589 509
604500 37582 470
861000 420970 525
150537 684351 509
503023 195183 449
497436 745046 509
977029 746614 525
646973 487108 509
281003 192340 443
756979 517173 509
566879 226095 470
578898 75170 470
583140 832987 509
833537 578025 509
353339 743571 509
36733 224796 386
532477 357582 470
904871 882240 445
141938 540391 470
619567 658332 509
673745 649424 442
911518 540947 525
876175 383087 525
135414 229924 386
885308 561365 525
250986 822932 509
750902 745103 393
899680 329054 525
819970 680089 504
572090 78718 470
887791 912405 476
198231 974581 525
503568 563102 470
360860 185219 443
326772 173143 443
731493 321915 509
970238 733600 525
259424 358610 441
337357 501514 449
105962 556004 470
63276 968363 525
309262 433085 449
303763 395981 441
689558 392774 509
780491 663842 504
560246 953153 525
687722 782004 504
397204 661692 509
792960 315576 509
736872 677122 504
822904 139449 509
223059 692090 509
16084 396123 443
903085 339437 525
544843 264816 470
585789 475932 470
361870 166633 443
317107 769526 509
910287 328451 525
803305 829649 450
51318 207237 383
917676 714808 525
509864 136904 449
263352 27730 443
115847 701404 509
133100 965512 525
127980 760574 509
106374 630700 509
966643 759421 525
954528 628986 525
753855 936808 525
487053 480151 413
160852 316154 443
464849 651122 509
197592 908611 525
730922 83493 509
743514 388239 509
264633 932580 525
815206 609118 509
952469 861057 507
794148 725873 468
486503 637448 509
96493 351986 443
951137 978229 458
56897 144350 375
339351 542009 470
119675 437864 449
451620 735260 509
783136 70501 509
373821 521257 470
126695 337092 443
4862 737408 509
165442 89199 383
910431 520833 525
723098 358797 509
116173 318077 443
991855 525074 525
321779 612024 470
456383 966525 525
416863 937592 525
399303 344608 441
110203 977489 525
776746 150583 509
945791 530293 525
855132 913760 476
972334 925369 507
634109 517232 509
857259 22570 525
745618 396270 509
291920 279431 389
215350 4901 383
121634 494529 449
200389 827814 509
752347 742906 393
575637 387563 470
35110 707925 509
31647 151153 375
10256 83680 351
167772 975449 525
605031 973017 525
917107 747436 525
621658 238490 470
523448 173230 470
127155 577019 470
205560 248815 443
661963 683779 442
590336 805855 509
521294 246780 470
973949 667530 525
731321 670876 504
478896 372170 449
241710 368371 441
214891 126613 383
286683 173149 443
622820 636497 509
828695 936218 525
283531 727375 509
491994 642784 509
607027 218318 470
417724 454449 418
982640 338829 525
27914 924861 525
167094 90222 383
772599 263105 509
914863 344202 525
552485 926367 525
114050 144279 375
658987 11870 509
981032 629700 525
754137 887808 525
188423 236980 443
624753 253986 470
153430 350674 443
188454 355088 443
97464 372918 443
503500 382996 449
902937 260349 525
340094 199283 443
239426 937358 525
207726 384983 443
908942 636272 525
601272 282003 470
868844 137846 525
627992 128951 509
930944 89628 525
108225 613963 470
706681 65027 509
704517 168010 509
970736 792593 525
627037 104448 509
249280 32815 443
987604 274028 525
104088 908866 525
930264 249306 525
280003 108084 443
253305 178386 443
610830 262550 470
355741 355138 379
337478 990020 525
990723 241517 525
282238 530523 470
